{
	"info": {
		"_postman_id": "92d92019-5c33-4486-a9ce-842870b3a5dc",
		"name": "Distributed cache app",
		"schema": "https://schema.getpostman.com/json/collection/v2.1.0/collection.json"
	},
	"item": [
		{
			"name": "List",
			"request": {
				"method": "GET",
				"header": [],
				"url": {
					"raw": "{{baseUrl}}/product",
					"host": [
						"{{baseUrl}}"
					],
					"path": [
						"product"
					]
				}
			},
			"response": []
		},
		{
			"name": "Create",
			"event": [
				{
					"listen": "test",
					"script": {
						"exec": [
							"pm.test(\"Returns productId\", function () {\r",
							"    var jsonData = pm.response.json();\r",
							"    pm.expect(jsonData.id).not.equal(undefined);\r",
							"\r",
							"    pm.environment.set(\"productId\", jsonData.id);\r",
							"});"
						],
						"type": "text/javascript"
					}
				}
			],
			"request": {
				"method": "POST",
				"header": [],
				"body": {
					"mode": "raw",
					"raw": "{\r\n    \"name\": \"Product name\"\r\n}",
					"options": {
						"raw": {
							"language": "json"
						}
					}
				},
				"url": {
					"raw": "{{baseUrl}}/product",
					"host": [
						"{{baseUrl}}"
					],
					"path": [
						"product"
					]
				}
			},
			"response": []
		},
		{
			"name": "Delete",
			"request": {
				"method": "DELETE",
				"header": [],
				"url": {
					"raw": "{{baseUrl}}/product/{{productId}}",
					"host": [
						"{{baseUrl}}"
					],
					"path": [
						"product",
						"{{productId}}"
					]
				}
			},
			"response": []
		}
	]
}